{
  "data": [
    {
      "id": 0,
      "tanggal": "01-02-2014",
      "no_fbo": 808,
      "pengirim": "Lorraine@tsel.com",
      "klien": "PT. Brewer",
      "tipe_klien": "DS",
      "jumlah": 34219444,
      "status": "UNPAID",
      "diskon": 0
    },
    {
      "id": 1,
      "tanggal": "28-10-2016",
      "no_fbo": 121,
      "pengirim": "Thornton@tsel.com",
      "klien": "PT. Drake",
      "tipe_klien": "DS",
      "jumlah": 48154304,
      "status": "UNPAID",
      "diskon": 0
    },
    {
      "id": 2,
      "tanggal": "23-10-2017",
      "no_fbo": 612,
      "pengirim": "Reid@tsel.com",
      "klien": "PT. Bullock",
      "tipe_klien": "CDS",
      "jumlah": 13073139,
      "status": "PAID",
      "diskon": 0
    },
    {
      "id": 3,
      "tanggal": "23-09-2017",
      "no_fbo": 478,
      "pengirim": "Shawn@tsel.com",
      "klien": "PT. Spence",
      "tipe_klien": "CDS",
      "jumlah": 42444218,
      "status": "UNPAID",
      "diskon": 0
    },
    {
      "id": 4,
      "tanggal": "22-11-2015",
      "no_fbo": 844,
      "pengirim": "Albert@tsel.com",
      "klien": "PT. Jenkins",
      "tipe_klien": "DS",
      "jumlah": 47055456,
      "status": "UNPAID",
      "diskon": 0
    },
    {
      "id": 5,
      "tanggal": "29-06-2014",
      "no_fbo": 453,
      "pengirim": "Frye@tsel.com",
      "klien": "PT. Chaney",
      "tipe_klien": "MS",
      "jumlah": 12217861,
      "status": "PAID",
      "diskon": 0
    },
    {
      "id": 6,
      "tanggal": "22-03-2016",
      "no_fbo": 335,
      "pengirim": "Vaughan@tsel.com",
      "klien": "PT. Nash",
      "tipe_klien": "CMS",
      "jumlah": 84460886,
      "status": "UNPAID",
      "diskon": 0
    },
    {
      "id": 7,
      "tanggal": "08-12-2016",
      "no_fbo": 327,
      "pengirim": "Nelda@tsel.com",
      "klien": "PT. Paul",
      "tipe_klien": "DS",
      "jumlah": 75223641,
      "status": "PAID",
      "diskon": 0
    }
  ]
}