{
  "data": [
    {
      "id": 0,
      "soa": 798,
      "form_title": "ea ullamco",
      "sales_name": "Terry Floyd",
      "client_name": "Stout Whitehead",
      "uat_client_no": 146,
      "uat_intern_no": 182,
      "status_co": "FINISH",
      "create_date": "20/09/2016",
      "running_date": "16/08/2016"
    },
    {
      "id": 1,
      "soa": 450,
      "form_title": "cupidatat culpa",
      "sales_name": "Hodge Burgess",
      "client_name": "Lopez Snider",
      "uat_client_no": 416,
      "uat_intern_no": 680,
      "status_co": "FINISH",
      "create_date": "15/05/2014",
      "running_date": "30/08/2018"
    },
    {
      "id": 2,
      "soa": 967,
      "form_title": "nostrud qui",
      "sales_name": "Lois Cortez",
      "client_name": "Roberta Espinoza",
      "uat_client_no": 936,
      "uat_intern_no": 131,
      "status_co": "RUNNING",
      "create_date": "02/02/2016",
      "running_date": "12/11/2017"
    },
    {
      "id": 3,
      "soa": 720,
      "form_title": "cillum ad",
      "sales_name": "Christa Summers",
      "client_name": "Johnson Cannon",
      "uat_client_no": 898,
      "uat_intern_no": 57,
      "status_co": "REVISE",
      "create_date": "29/05/2018",
      "running_date": "25/05/2016"
    },
    {
      "id": 4,
      "soa": 810,
      "form_title": "proident ut",
      "sales_name": "Vonda Gallegos",
      "client_name": "Michelle Gross",
      "uat_client_no": 980,
      "uat_intern_no": 903,
      "status_co": "REVISE",
      "create_date": "18/11/2014",
      "running_date": "05/06/2015"
    },
    {
      "id": 5,
      "soa": 249,
      "form_title": "ex minim",
      "sales_name": "Tara Faulkner",
      "client_name": "Daniels Cole",
      "uat_client_no": 711,
      "uat_intern_no": 456,
      "status_co": "FINISH",
      "create_date": "07/10/2017",
      "running_date": "12/01/2017"
    },
    {
      "id": 6,
      "soa": 859,
      "form_title": "eu reprehenderit",
      "sales_name": "Garcia Scott",
      "client_name": "Fuentes Wooten",
      "uat_client_no": 836,
      "uat_intern_no": 873,
      "status_co": "REVISE",
      "create_date": "22/04/2018",
      "running_date": "26/02/2016"
    },
    {
      "id": 7,
      "soa": 863,
      "form_title": "non labore",
      "sales_name": "Rocha Gardner",
      "client_name": "Spencer Peters",
      "uat_client_no": 963,
      "uat_intern_no": 247,
      "status_co": "REVISE",
      "create_date": "07/02/2015",
      "running_date": "16/01/2017"
    }
  ]
}